{
  "director": "uk.co.nickthecoder.tickle.NoDirector",
  "background": "#000000",
  "showMouse": true,
  "layout": "default",
  "snapToGrid": {
    "enabled": false,
    "xSpacing": 50,
    "ySpacing": 50,
    "xOffset": 0,
    "yOffset": 0,
    "xCloseness": 10,
    "yCloseness": 10
  },
  "snapToGuides": {
    "enabled": true,
    "closeness": 5,
    "x": [
      
    ],
    "y": [
      
    ]
  },
  "snapToOthers": {
    "enabled": true,
    "xCloseness": 10,
    "yCloseness": 10
  },
  "snapRotation": {
    "enabled": true,
    "step": 15,
    "closeness": 15
  },
  "include": [
    
  ],
  "stages": [
    {
      "name": "main",
      "actors": [
        {
          "costume": "restartSceneButton",
          "x": 400,
          "y": 420,
          "text": "Try Again",
          "textOutlineColor": "#00000000"
        },
        {
          "costume": "continueButton",
          "x": 400,
          "y": 200,
          "text": "Next Level !",
          "textOutlineColor": "#00000000"
        },
        {
          "costume": "menuButton",
          "x": 406,
          "y": 340,
          "text": "Back To Menu",
          "textOutlineColor": "#00000000"
        }
      ]
    }
  ]
}