{
  "director": "Play",
  "directorAttributes": [
    {
      "name": "horizontalClan",
      "value": "MEENY"
    },
    {
      "name": "verticalClan",
      "value": "MEENY"
    },
    {
      "name": "seconds",
      "value": "15"
    },
    {
      "name": "nextScene",
      "value": "plain/08"
    },
    {
      "name": "acceleration",
      "value": "0.1"
    }
  ],
  "background": "#000000",
  "showMouse": true,
  "layout": "default",
  "snapToGrid": {
    "enabled": false,
    "xSpacing": 50,
    "ySpacing": 50,
    "xOffset": 0,
    "yOffset": 0,
    "xCloseness": 10,
    "yCloseness": 10
  },
  "snapToGuides": {
    "enabled": true,
    "closeness": 5,
    "x": [
      
    ],
    "y": [
      
    ]
  },
  "snapToOthers": {
    "enabled": true,
    "xCloseness": 10,
    "yCloseness": 10
  },
  "snapRotation": {
    "enabled": true,
    "step": 15,
    "closeness": 15
  },
  "include": [
    "edge"
  ],
  "stages": [
    {
      "name": "main",
      "actors": [
        {
          "costume": "player-square",
          "x": 478,
          "y": 359,
          "attributes": [
            {
              "name": "clan",
              "value": "MO"
            }
          ]
        },
        {
          "costume": "rock-square",
          "x": 558,
          "y": 188,
          "attributes": [
            {
              "name": "velocity",
              "value": "2.0x2.0"
            },
            {
              "name": "clan",
              "value": "MINY"
            },
            {
              "name": "rotation",
              "value": "0"
            }
          ]
        },
        {
          "costume": "rock-square",
          "x": 94,
          "y": 378,
          "attributes": [
            {
              "name": "velocity",
              "value": "1.0x1.0"
            },
            {
              "name": "clan",
              "value": "MINY"
            },
            {
              "name": "rotation",
              "value": "0"
            }
          ]
        },
        {
          "costume": "rock-square",
          "x": 135,
          "y": 106,
          "attributes": [
            {
              "name": "velocity",
              "value": "3.0x1.0"
            },
            {
              "name": "clan",
              "value": "MINY"
            },
            {
              "name": "rotation",
              "value": "0"
            }
          ]
        },
        {
          "costume": "rock-square",
          "x": 271,
          "y": 238,
          "attributes": [
            {
              "name": "velocity",
              "value": "1.0x1.0"
            },
            {
              "name": "clan",
              "value": "MINY"
            },
            {
              "name": "rotation",
              "value": "0"
            }
          ]
        },
        {
          "costume": "rock-square",
          "x": 306,
          "y": 468,
          "attributes": [
            {
              "name": "velocity",
              "value": "0.0x-4.0"
            },
            {
              "name": "clan",
              "value": "MINY"
            },
            {
              "name": "rotation",
              "value": "0"
            }
          ]
        },
        {
          "costume": "rock-square",
          "x": 688,
          "y": 329,
          "attributes": [
            {
              "name": "velocity",
              "value": "-1.0x-3.0"
            },
            {
              "name": "clan",
              "value": "MINY"
            },
            {
              "name": "rotation",
              "value": "0"
            }
          ]
        },
        {
          "costume": "rock-square",
          "x": 696,
          "y": 153,
          "attributes": [
            {
              "name": "velocity",
              "value": "2.0x0.0"
            },
            {
              "name": "clan",
              "value": "MINY"
            },
            {
              "name": "rotation",
              "value": "0"
            }
          ]
        }
      ]
    }
  ]
}