{
  "director": "Play",
  "directorAttributes": [
    {
      "name": "horizontalClan",
      "value": "MEENY"
    },
    {
      "name": "verticalClan",
      "value": "MEENY"
    },
    {
      "name": "seconds",
      "value": "15"
    },
    {
      "name": "nextScene",
      "value": "plain/14"
    },
    {
      "name": "acceleration",
      "value": "0.1"
    }
  ],
  "background": "#000000",
  "showMouse": true,
  "layout": "default",
  "snapToGrid": {
    "enabled": false,
    "xSpacing": 50,
    "ySpacing": 50,
    "xOffset": 0,
    "yOffset": 0,
    "xCloseness": 10,
    "yCloseness": 10
  },
  "snapToGuides": {
    "enabled": true,
    "closeness": 5,
    "x": [
      
    ],
    "y": [
      
    ]
  },
  "snapToOthers": {
    "enabled": true,
    "xCloseness": 10,
    "yCloseness": 10
  },
  "snapRotation": {
    "enabled": true,
    "step": 15,
    "closeness": 15
  },
  "include": [
    "edge"
  ],
  "stages": [
    {
      "name": "main",
      "actors": [
        {
          "costume": "player-square",
          "x": 393,
          "y": 300,
          "attributes": [
            {
              "name": "clan",
              "value": "MO"
            }
          ]
        },
        {
          "costume": "rock-short",
          "x": 574,
          "y": 383,
          "attributes": [
            {
              "name": "velocity",
              "value": "-3.0x0.0"
            },
            {
              "name": "clan",
              "value": "MINY"
            },
            {
              "name": "rotation",
              "value": "0"
            }
          ]
        },
        {
          "costume": "rock-short",
          "x": 176,
          "y": 407,
          "attributes": [
            {
              "name": "velocity",
              "value": "1.0x1.0"
            },
            {
              "name": "clan",
              "value": "MINY"
            },
            {
              "name": "rotation",
              "value": "0"
            }
          ]
        },
        {
          "costume": "rock-short",
          "x": 126,
          "y": 97,
          "direction": 90,
          "attributes": [
            {
              "name": "velocity",
              "value": "-0.1x2.0"
            },
            {
              "name": "clan",
              "value": "MINY"
            },
            {
              "name": "rotation",
              "value": "0"
            }
          ]
        },
        {
          "costume": "rock-short",
          "x": 292,
          "y": 189,
          "direction": 90,
          "attributes": [
            {
              "name": "velocity",
              "value": "0.0x2.5"
            },
            {
              "name": "clan",
              "value": "MINY"
            },
            {
              "name": "rotation",
              "value": "0"
            }
          ]
        },
        {
          "costume": "rock-short",
          "x": 645,
          "y": 85,
          "direction": 90,
          "attributes": [
            {
              "name": "velocity",
              "value": "0.1x-3.1"
            },
            {
              "name": "clan",
              "value": "MINY"
            },
            {
              "name": "rotation",
              "value": "0"
            }
          ]
        },
        {
          "costume": "rock-short",
          "x": 466,
          "y": 537,
          "direction": 90,
          "attributes": [
            {
              "name": "velocity",
              "value": "0.0x1.0"
            },
            {
              "name": "clan",
              "value": "MINY"
            },
            {
              "name": "rotation",
              "value": "0"
            }
          ]
        }
      ]
    }
  ]
}