{
  "director": "Play",
  "directorAttributes": [
    {
      "name": "horizontalClan",
      "value": "MINY"
    },
    {
      "name": "verticalClan",
      "value": "MEENY"
    },
    {
      "name": "seconds",
      "value": "30"
    },
    {
      "name": "nextScene",
      "value": "sides/07"
    },
    {
      "name": "acceleration",
      "value": "0.01"
    }
  ],
  "background": "#000000",
  "showMouse": true,
  "layout": "default",
  "snapToGrid": {
    "enabled": false,
    "xSpacing": 50,
    "ySpacing": 50,
    "xOffset": 0,
    "yOffset": 0,
    "xCloseness": 10,
    "yCloseness": 10
  },
  "snapToGuides": {
    "enabled": true,
    "closeness": 5,
    "x": [
      
    ],
    "y": [
      
    ]
  },
  "snapToOthers": {
    "enabled": true,
    "xCloseness": 10,
    "yCloseness": 10
  },
  "snapRotation": {
    "enabled": true,
    "step": 15,
    "closeness": 15
  },
  "include": [
    "edge"
  ],
  "stages": [
    {
      "name": "main",
      "actors": [
        {
          "costume": "player-square",
          "x": 393,
          "y": 300,
          "attributes": [
            {
              "name": "clan",
              "value": "MO"
            }
          ]
        },
        {
          "costume": "rock-short",
          "x": 255,
          "y": 118,
          "attributes": [
            {
              "name": "velocity",
              "value": "-2.0x1.0"
            },
            {
              "name": "clan",
              "value": "MINY"
            },
            {
              "name": "rotation",
              "value": "0"
            }
          ]
        },
        {
          "costume": "rock-square",
          "x": 623,
          "y": 212,
          "attributes": [
            {
              "name": "velocity",
              "value": "3.0x-3.0"
            },
            {
              "name": "clan",
              "value": "MEENY"
            },
            {
              "name": "rotation",
              "value": "0"
            }
          ]
        },
        {
          "costume": "rock-short",
          "x": 253,
          "y": 491,
          "attributes": [
            {
              "name": "velocity",
              "value": "-5.0x2.0"
            },
            {
              "name": "clan",
              "value": "MEENY"
            },
            {
              "name": "rotation",
              "value": "0"
            }
          ]
        },
        {
          "costume": "rock-short",
          "x": 99,
          "y": 369,
          "attributes": [
            {
              "name": "velocity",
              "value": "-2.0x5.0"
            },
            {
              "name": "clan",
              "value": "MEENY"
            },
            {
              "name": "rotation",
              "value": "0"
            }
          ]
        },
        {
          "costume": "rock-long",
          "x": 581,
          "y": 411,
          "direction": 90,
          "attributes": [
            {
              "name": "velocity",
              "value": "4.0x-4.0"
            },
            {
              "name": "clan",
              "value": "MINY"
            },
            {
              "name": "rotation",
              "value": "0"
            }
          ]
        }
      ]
    }
  ]
}