{
  "director": "Play",
  "directorAttributes": [
    {
      "name": "horizontalClan",
      "value": "MEENY"
    },
    {
      "name": "verticalClan",
      "value": "MEENY"
    },
    {
      "name": "seconds",
      "value": "15"
    },
    {
      "name": "nextScene",
      "value": "elastic/02"
    },
    {
      "name": "acceleration",
      "value": "0.1"
    }
  ],
  "background": "#000000",
  "showMouse": true,
  "layout": "default",
  "snapToGrid": {
    "enabled": false,
    "xSpacing": 50,
    "ySpacing": 50,
    "xOffset": 0,
    "yOffset": 0,
    "xCloseness": 10,
    "yCloseness": 10
  },
  "snapToGuides": {
    "enabled": true,
    "closeness": 5,
    "x": [
      
    ],
    "y": [
      
    ]
  },
  "snapToOthers": {
    "enabled": true,
    "xCloseness": 10,
    "yCloseness": 10
  },
  "snapRotation": {
    "enabled": true,
    "step": 15,
    "closeness": 15
  },
  "include": [
    "edge"
  ],
  "stages": [
    {
      "name": "main",
      "actors": [
        {
          "costume": "rock-long",
          "x": 146,
          "y": 398,
          "attributes": [
            {
              "name": "velocity",
              "value": "1.0x1.0"
            },
            {
              "name": "clan",
              "value": "MINY"
            },
            {
              "name": "rotation",
              "value": "0"
            }
          ]
        },
        {
          "costume": "rock-short",
          "x": 322,
          "y": 116,
          "attributes": [
            {
              "name": "velocity",
              "value": "-2.0x1.0"
            },
            {
              "name": "clan",
              "value": "MINY"
            },
            {
              "name": "rotation",
              "value": "0"
            }
          ]
        },
        {
          "costume": "rock-square",
          "x": 548,
          "y": 150,
          "attributes": [
            {
              "name": "velocity",
              "value": "1.0x-1.0"
            },
            {
              "name": "clan",
              "value": "MINY"
            },
            {
              "name": "rotation",
              "value": "0"
            }
          ]
        },
        {
          "costume": "rock-short",
          "x": 589,
          "y": 458,
          "direction": 90,
          "attributes": [
            {
              "name": "velocity",
              "value": "1.0x-2.0"
            },
            {
              "name": "clan",
              "value": "MINY"
            },
            {
              "name": "rotation",
              "value": "0"
            }
          ]
        },
        {
          "costume": "player-circle",
          "x": 345,
          "y": 317,
          "attributes": [
            {
              "name": "strength",
              "value": "10"
            },
            {
              "name": "max",
              "value": "100"
            },
            {
              "name": "clan",
              "value": "MO"
            }
          ]
        }
      ]
    }
  ]
}