{
  "director": "Play",
  "directorAttributes": [
    {
      "name": "horizontalClan",
      "value": "MINY"
    },
    {
      "name": "verticalClan",
      "value": "MEENY"
    },
    {
      "name": "seconds",
      "value": "15"
    },
    {
      "name": "nextScene",
      "value": "friend/12"
    },
    {
      "name": "acceleration",
      "value": "0.1"
    }
  ],
  "background": "#000000",
  "showMouse": true,
  "layout": "default",
  "snapToGrid": {
    "enabled": false,
    "xSpacing": 50,
    "ySpacing": 50,
    "xOffset": 0,
    "yOffset": 0,
    "xCloseness": 10,
    "yCloseness": 10
  },
  "snapToGuides": {
    "enabled": true,
    "closeness": 5,
    "x": [
      
    ],
    "y": [
      
    ]
  },
  "snapToOthers": {
    "enabled": true,
    "xCloseness": 10,
    "yCloseness": 10
  },
  "snapRotation": {
    "enabled": true,
    "step": 15,
    "closeness": 15
  },
  "include": [
    "edge"
  ],
  "stages": [
    {
      "name": "main",
      "actors": [
        {
          "costume": "player-square",
          "x": 393,
          "y": 300,
          "attributes": [
            {
              "name": "clan",
              "value": "MO"
            }
          ]
        },
        {
          "costume": "rock-short",
          "x": 103,
          "y": 483,
          "attributes": [
            {
              "name": "velocity",
              "value": "3.0x0.0"
            },
            {
              "name": "clan",
              "value": "MEENY"
            },
            {
              "name": "rotation",
              "value": "0"
            }
          ]
        },
        {
          "costume": "rock-short",
          "x": 170,
          "y": 224,
          "attributes": [
            {
              "name": "velocity",
              "value": "2.0x0.0"
            },
            {
              "name": "clan",
              "value": "MINY"
            },
            {
              "name": "rotation",
              "value": "0"
            }
          ]
        },
        {
          "costume": "rock-short",
          "x": 574,
          "y": 383,
          "attributes": [
            {
              "name": "velocity",
              "value": "-3.0x0.0"
            },
            {
              "name": "clan",
              "value": "MINY"
            },
            {
              "name": "rotation",
              "value": "0"
            }
          ]
        },
        {
          "costume": "rock-short",
          "x": 674,
          "y": 118,
          "attributes": [
            {
              "name": "velocity",
              "value": "-2.5x0.0"
            },
            {
              "name": "clan",
              "value": "MEENY"
            },
            {
              "name": "rotation",
              "value": "0"
            }
          ]
        },
        {
          "costume": "rock-square",
          "x": 71,
          "y": 331,
          "attributes": [
            {
              "name": "velocity",
              "value": "1.0x1.0"
            },
            {
              "name": "clan",
              "value": "MINY"
            },
            {
              "name": "rotation",
              "value": "0"
            }
          ]
        },
        {
          "costume": "rock-square",
          "x": 706,
          "y": 252,
          "attributes": [
            {
              "name": "velocity",
              "value": "-1.0x-1.0"
            },
            {
              "name": "clan",
              "value": "MEENY"
            },
            {
              "name": "rotation",
              "value": "0"
            }
          ]
        },
        {
          "costume": "rock-short",
          "x": 256,
          "y": 418,
          "attributes": [
            {
              "name": "velocity",
              "value": "4.5x0.0"
            },
            {
              "name": "clan",
              "value": "MO"
            },
            {
              "name": "rotation",
              "value": "0"
            }
          ]
        },
        {
          "costume": "rock-short",
          "x": 475,
          "y": 230,
          "attributes": [
            {
              "name": "velocity",
              "value": "5.5x0.0"
            },
            {
              "name": "clan",
              "value": "MO"
            },
            {
              "name": "rotation",
              "value": "0"
            }
          ]
        },
        {
          "costume": "rock-short",
          "x": 253,
          "y": 92,
          "attributes": [
            {
              "name": "velocity",
              "value": "0.1x0.0"
            },
            {
              "name": "clan",
              "value": "MO"
            },
            {
              "name": "rotation",
              "value": "0"
            }
          ]
        }
      ]
    }
  ]
}