{
  "director": "Play",
  "directorAttributes": [
    {
      "name": "horizontalClan",
      "value": "MINY"
    },
    {
      "name": "verticalClan",
      "value": "MINY"
    },
    {
      "name": "seconds",
      "value": "15"
    },
    {
      "name": "nextScene",
      "value": "balls/02"
    },
    {
      "name": "acceleration",
      "value": "0.1"
    }
  ],
  "background": "#000000",
  "showMouse": true,
  "layout": "default",
  "snapToGrid": {
    "enabled": false,
    "xSpacing": 50,
    "ySpacing": 50,
    "xOffset": 0,
    "yOffset": 0,
    "xCloseness": 10,
    "yCloseness": 10
  },
  "snapToGuides": {
    "enabled": true,
    "closeness": 5,
    "x": [
      
    ],
    "y": [
      
    ]
  },
  "snapToOthers": {
    "enabled": true,
    "xCloseness": 10,
    "yCloseness": 10
  },
  "snapRotation": {
    "enabled": true,
    "step": 15,
    "closeness": 15
  },
  "include": [
    "edge"
  ],
  "stages": [
    {
      "name": "main",
      "actors": [
        {
          "costume": "player-square",
          "x": 396,
          "y": 302,
          "attributes": [
            {
              "name": "clan",
              "value": "MO"
            }
          ]
        },
        {
          "costume": "rock-circle",
          "x": 158,
          "y": 451,
          "attributes": [
            {
              "name": "velocity",
              "value": "1.0x1.0"
            },
            {
              "name": "clan",
              "value": "MEENY"
            },
            {
              "name": "rotation",
              "value": "4"
            }
          ]
        },
        {
          "costume": "rock-circle",
          "x": 228,
          "y": 166,
          "attributes": [
            {
              "name": "velocity",
              "value": "1.0x1.0"
            },
            {
              "name": "clan",
              "value": "MEENY"
            },
            {
              "name": "rotation",
              "value": "7"
            }
          ]
        },
        {
          "costume": "rock-circle",
          "x": 638,
          "y": 384,
          "attributes": [
            {
              "name": "velocity",
              "value": "2.0x1.0"
            },
            {
              "name": "clan",
              "value": "MEENY"
            },
            {
              "name": "rotation",
              "value": "1"
            }
          ]
        },
        {
          "costume": "rock-circle",
          "x": 481,
          "y": 113,
          "attributes": [
            {
              "name": "velocity",
              "value": "1.0x1.0"
            },
            {
              "name": "clan",
              "value": "EENY"
            },
            {
              "name": "rotation",
              "value": "-2"
            }
          ]
        },
        {
          "costume": "rock-circle",
          "x": 371,
          "y": 463,
          "attributes": [
            {
              "name": "velocity",
              "value": "1.0x1.0"
            },
            {
              "name": "clan",
              "value": "EENY"
            },
            {
              "name": "rotation",
              "value": "-3"
            }
          ]
        },
        {
          "costume": "rock-circle",
          "x": 162,
          "y": 289,
          "attributes": [
            {
              "name": "velocity",
              "value": "3.0x1.0"
            },
            {
              "name": "clan",
              "value": "EENY"
            },
            {
              "name": "rotation",
              "value": "5"
            }
          ]
        }
      ]
    }
  ]
}