{
  "director": "GridMenu",
  "directorAttributes": [
    {
      "name": "prefix",
      "value": "balls/"
    },
    {
      "name": "count",
      "value": "15"
    }
  ],
  "background": "#000000",
  "showMouse": true,
  "layout": "default",
  "snapToGrid": {
    "enabled": false,
    "xSpacing": 50,
    "ySpacing": 50,
    "xOffset": 0,
    "yOffset": 0,
    "xCloseness": 10,
    "yCloseness": 10
  },
  "snapToGuides": {
    "enabled": true,
    "closeness": 5,
    "x": [
      
    ],
    "y": [
      
    ]
  },
  "snapToOthers": {
    "enabled": true,
    "xCloseness": 10,
    "yCloseness": 10
  },
  "snapRotation": {
    "enabled": true,
    "step": 15,
    "closeness": 15
  },
  "include": [
    "menuBackground"
  ],
  "stages": [
    {
      "name": "menu",
      "actors": [
        {
          "costume": "sceneButton",
          "x": 685,
          "y": 90,
          "text": "Back",
          "attributes": [
            {
              "name": "scene",
              "value": "menu"
            }
          ]
        },
        {
          "costume": "startInfo",
          "x": 411,
          "y": 354,
          "text": "Buy me a bottle of wine,\nand I'll add more levels!",
          "textOutlineColor": "#00000000"
        }
      ]
    }
  ]
}