{
  "director": "Play",
  "directorAttributes": [
    {
      "name": "horizontalClan",
      "value": "MEENY"
    },
    {
      "name": "verticalClan",
      "value": "MINY"
    },
    {
      "name": "seconds",
      "value": "15"
    },
    {
      "name": "nextScene",
      "value": "switch/06"
    },
    {
      "name": "acceleration",
      "value": "0.1"
    }
  ],
  "background": "#000000",
  "showMouse": true,
  "layout": "default",
  "snapToGrid": {
    "enabled": false,
    "xSpacing": 50,
    "ySpacing": 50,
    "xOffset": 0,
    "yOffset": 0,
    "xCloseness": 10,
    "yCloseness": 10
  },
  "snapToGuides": {
    "enabled": true,
    "closeness": 5,
    "x": [
      
    ],
    "y": [
      
    ]
  },
  "snapToOthers": {
    "enabled": true,
    "xCloseness": 10,
    "yCloseness": 10
  },
  "snapRotation": {
    "enabled": true,
    "step": 15,
    "closeness": 15
  },
  "include": [
    "edge"
  ],
  "stages": [
    {
      "name": "main",
      "actors": [
        {
          "costume": "rock-short",
          "x": 322,
          "y": 116,
          "attributes": [
            {
              "name": "velocity",
              "value": "-2.0x1.0"
            },
            {
              "name": "clan",
              "value": "MEENY"
            },
            {
              "name": "rotation",
              "value": "0"
            }
          ]
        },
        {
          "costume": "rock-square",
          "x": 548,
          "y": 150,
          "attributes": [
            {
              "name": "velocity",
              "value": "1.0x-1.0"
            },
            {
              "name": "clan",
              "value": "MEENY"
            },
            {
              "name": "rotation",
              "value": "0"
            }
          ]
        },
        {
          "costume": "rock-short",
          "x": 589,
          "y": 458,
          "direction": 90,
          "attributes": [
            {
              "name": "velocity",
              "value": "1.0x-2.0"
            },
            {
              "name": "clan",
              "value": "MINY"
            },
            {
              "name": "rotation",
              "value": "0"
            }
          ]
        },
        {
          "costume": "rock-short",
          "x": 217,
          "y": 495,
          "attributes": [
            {
              "name": "velocity",
              "value": "-3.0x1.0"
            },
            {
              "name": "clan",
              "value": "MINY"
            },
            {
              "name": "rotation",
              "value": "0"
            }
          ]
        },
        {
          "costume": "rock-short",
          "x": 67,
          "y": 284,
          "attributes": [
            {
              "name": "velocity",
              "value": "-1.0x3.0"
            },
            {
              "name": "clan",
              "value": "MEENY"
            },
            {
              "name": "rotation",
              "value": "0"
            }
          ]
        },
        {
          "costume": "rock-short",
          "x": 206,
          "y": 182,
          "attributes": [
            {
              "name": "velocity",
              "value": "3.0x1.0"
            },
            {
              "name": "clan",
              "value": "MO"
            },
            {
              "name": "rotation",
              "value": "0"
            }
          ]
        },
        {
          "costume": "rock-short",
          "x": 641,
          "y": 354,
          "attributes": [
            {
              "name": "velocity",
              "value": "-1.3x3.0"
            },
            {
              "name": "clan",
              "value": "MO"
            },
            {
              "name": "rotation",
              "value": "0"
            }
          ]
        },
        {
          "costume": "rock-square",
          "x": 349,
          "y": 531,
          "attributes": [
            {
              "name": "velocity",
              "value": "1.0x1.0"
            },
            {
              "name": "clan",
              "value": "MO"
            },
            {
              "name": "rotation",
              "value": "0"
            }
          ]
        },
        {
          "costume": "player-triangle",
          "x": 393,
          "y": 290,
          "attributes": [
            {
              "name": "otherClan",
              "value": "MINY"
            },
            {
              "name": "changeSpeed",
              "value": "2"
            },
            {
              "name": "changeDelay",
              "value": "3"
            },
            {
              "name": "clan",
              "value": "MO"
            }
          ]
        }
      ]
    }
  ]
}