{
  "director": "Play",
  "directorAttributes": [
    {
      "name": "horizontalClan",
      "value": "MEENY"
    },
    {
      "name": "verticalClan",
      "value": "MINY"
    },
    {
      "name": "seconds",
      "value": "15"
    },
    {
      "name": "nextScene",
      "value": "switch/13"
    },
    {
      "name": "acceleration",
      "value": "0.1"
    }
  ],
  "background": "#000000",
  "showMouse": true,
  "layout": "default",
  "snapToGrid": {
    "enabled": false,
    "xSpacing": 50,
    "ySpacing": 50,
    "xOffset": 0,
    "yOffset": 0,
    "xCloseness": 10,
    "yCloseness": 10
  },
  "snapToGuides": {
    "enabled": true,
    "closeness": 5,
    "x": [
      
    ],
    "y": [
      
    ]
  },
  "snapToOthers": {
    "enabled": true,
    "xCloseness": 10,
    "yCloseness": 10
  },
  "snapRotation": {
    "enabled": true,
    "step": 15,
    "closeness": 15
  },
  "include": [
    "edge"
  ],
  "stages": [
    {
      "name": "main",
      "actors": [
        {
          "costume": "rock-short",
          "x": 574,
          "y": 383,
          "attributes": [
            {
              "name": "velocity",
              "value": "-3.0x0.0"
            },
            {
              "name": "clan",
              "value": "MEENY"
            },
            {
              "name": "rotation",
              "value": "0"
            }
          ]
        },
        {
          "costume": "rock-long",
          "x": 116,
          "y": 82,
          "direction": 90,
          "attributes": [
            {
              "name": "velocity",
              "value": "0.1x3.0"
            },
            {
              "name": "clan",
              "value": "MEENY"
            },
            {
              "name": "rotation",
              "value": "0"
            }
          ]
        },
        {
          "costume": "rock-long",
          "x": 598,
          "y": 71,
          "direction": 90,
          "attributes": [
            {
              "name": "velocity",
              "value": "-0.1x-3.0"
            },
            {
              "name": "clan",
              "value": "MINY"
            },
            {
              "name": "rotation",
              "value": "0"
            }
          ]
        },
        {
          "costume": "rock-short",
          "x": 176,
          "y": 407,
          "attributes": [
            {
              "name": "velocity",
              "value": "1.0x1.0"
            },
            {
              "name": "clan",
              "value": "MINY"
            },
            {
              "name": "rotation",
              "value": "0"
            }
          ]
        },
        {
          "costume": "rock-short",
          "x": 134,
          "y": 285,
          "direction": 270,
          "attributes": [
            {
              "name": "velocity",
              "value": "0.0x3.4"
            },
            {
              "name": "clan",
              "value": "MO"
            },
            {
              "name": "rotation",
              "value": "0"
            }
          ]
        },
        {
          "costume": "rock-short",
          "x": 474,
          "y": 242,
          "direction": 90,
          "attributes": [
            {
              "name": "velocity",
              "value": "0.0x4.0"
            },
            {
              "name": "clan",
              "value": "MO"
            },
            {
              "name": "rotation",
              "value": "0"
            }
          ]
        },
        {
          "costume": "rock-short",
          "x": 694,
          "y": 425,
          "direction": 90,
          "attributes": [
            {
              "name": "velocity",
              "value": "0.0x3.5"
            },
            {
              "name": "clan",
              "value": "MO"
            },
            {
              "name": "rotation",
              "value": "0"
            }
          ]
        },
        {
          "costume": "player-triangle",
          "x": 365,
          "y": 294,
          "attributes": [
            {
              "name": "otherClan",
              "value": "MINY"
            },
            {
              "name": "changeSpeed",
              "value": "2"
            },
            {
              "name": "changeDelay",
              "value": "3"
            },
            {
              "name": "clan",
              "value": "MO"
            }
          ]
        }
      ]
    }
  ]
}